…
                        input_type = "daily",
                        param1 = 2,
                        param2 = 3,
                        min_time = 2)
#> [1] "CH4: 387.24 +- 67.37"
#> [1] "CH4 CV = 17.4%"
#> [1] "CO2: 11198.47 +- 1427.23"
#> [1] "CO2 CV = 12.7%"
#> [1] "O2: 7578.41 +- 917.46"
#> [1] "O2 CV = 12.1%"
#> [1] "H2: 0 +- 0"
#> [1] "H2 CV = NaN%"
head(data1)
#> $daily_data
#> # A tibble: 62 × 8
#>    RFID           week     n minutes CH4GramsPerDay CO2GramsPerDay O2GramsPerDay
#>    <chr>         <dbl> <int>   <dbl>          <dbl>          <dbl>         <dbl>
#>  1 840003234513…     1     3    8.45           263.          8321.         5596.
#>  2 840003234513…     1     4   10.8            432.         11721.         7582.
#>  3 840003234513…     1     2    4.73           427.         13417.         8706.
#>  4 840003234513…     1     7   25.9            453.         11995.         8277.
#>  5 840003234513…     1     5   14.5            245.          7704.         5176.
#>  6 840003234513…     1     5   17.3            428.         11108.         6964.
#>  7 840003234513…     1     2    5.65           403.         13532.         9164.
#>  8 840003250681…     1     4   12.1            466.         14654.        10272.
#>  9 840003250681…     2     4   15.9            295.          9274.         6219.
#> 10 840003250681…     1     2    5.54           370.         10421.         7659.
#> # ℹ 52 more rows
#> # ℹ 1 more variable: H2GramsPerDay <dbl>
…
                        input_type = "daily",
                        param1 = 2,
                        param2 = 5,
                        min_time = 3)
#> [1] "CH4: 454.96 +- 78.38"
#> [1] "CH4 CV = 17.2%"
#> [1] "CO2: 12386.83 +- 1758.98"
#> [1] "CO2 CV = 14.2%"
#> [1] "O2: 8204.45 +- 788.7"
#> [1] "O2 CV = 9.6%"
#> [1] "H2: 0 +- 0"
#> [1] "H2 CV = NaN%"
head(data1)
#> $daily_data
#> # A tibble: 35 × 8
#>    RFID           week     n minutes CH4GramsPerDay CO2GramsPerDay O2GramsPerDay
#>    <chr>         <dbl> <int>   <dbl>          <dbl>          <dbl>         <dbl>
#>  1 840003234513…     1     4   17.9            399.         11478.         7963.
#>  2 840003234513…     1     2    6.3            168.          5979.         4644.
#>  3 840003234513…     1     4   14.3            404.         10265.         6306.
#>  4 840003250681…     1     2    7.41           495.         14894.        10622.
#>  5 840003250681…     2     3   13.8            320.          9595.         6303.
#>  6 840003250681…     1     3   15.1            615.         16193.        10012.
#>  7 840003250681…     1     2    7.32           230.          6315.         3860.
#>  8 840003250681…     1     2    8.35           248.          8367.         6197.
#>  9 840003250681…     1     3   11.9            655.         16471.        10613.
#> 10 840003250681…     1     2    8.42           624.         16610.        10714.
#> # ℹ 25 more rows
#> # ℹ 1 more variable: H2GramsPerDay <dbl>
…
head(data2)
#> $daily_data
#> # A tibble: 116 × 8
#>    RFID           week     n minutes CH4GramsPerDay CO2GramsPerDay O2GramsPerDay
#>    <chr>         <dbl> <int>   <dbl>          <dbl>          <dbl>         <dbl>
#>  1 840003234513…     1     3    8.45           264.          8359.         5622.
#>  2 840003234513…     1     4   10.8            434.         11779.         7620.
#>  3 840003234513…     1     2    4.73           431.         13572.         8810.
#>  4 840003234513…     2     2    4.94           320.         10858.         8025.
#>  5 840003234513…     1     6   23.0            407.         11385.         7818.
#>  6 840003234513…     1     5   14.5            246.          7740.         5201.
#>  7 840003234513…     1     5   17.3            429.         11143.         6986.
#>  8 840003234513…     1     2    5.65           406.         13642.         9239.
#>  9 840003234513…     2     3   14.5            409.         12906.         8339.
#> 10 840003234513…     2     2    4.9            278.          9973.         7165.
#> # ℹ 106 more rows
#> # ℹ 1 more variable: H2GramsPerDay <dbl>
#> 
#> $weekly_data
#> # A tibble: 22 × 9
#>    RFID             week nDays nRecords TotalMin CH4GramsPerDay CO2GramsPerDay
#>    <chr>           <dbl> <int>    <int>    <dbl>          <dbl>          <dbl>
#>  1 840003234513937     1     3        9     24.0           374.         10929.
#>  2 840003234513944     1     4       18     60.4           375.         10651.
#>  3 840003250681645     2     6       27    104.            405.         13499.
#>  4 840003250681648     2     4       25    108.            335.         11047.
#>  5 840003250681660     1     4       12     43.2           440.         11983.
#>  6 840003250681660     2     3        7     21.4           524.         15047.
#>  7 840003250681661     1     3       14     59.3           357.         11035.
#>  8 840003250681661     2     6       23     86.3           377.         12326.
#>  9 840003250681680     1     3        9     33.1           448.         12350.
#> 10 840003250681680     2     4       13     52.2           496.         13313.
#> # ℹ 12 more rows
#> # ℹ 2 more variables: O2GramsPerDay <dbl>, H2GramsPerDay <dbl>
```
