Process 'GreenFeed' Pellet Intakes — pellin • greenfeedr
…
pellin(
  file_path = path,
  unit = 1,
  gcup = 34,
  start_date = "2024-05-13",
  end_date = "2024-05-25",
  save_dir = tempdir(),
  rfid_file = RFIDs
)
#> Please set the 'gcup' parameter based on the 10-drops test.
#>            If units have different gram values, define 'gcup' as a vector with an element for each unit.
#> Animal ID not visting GreenFeed: Animal11, Animal12, Animal13, Animal14, Animal16, Animal17, Animal18, Animal19, Animal20, Animal21, Animal22, Animal23, Animal24, Animal25, Animal26, Animal27, Animal28, Animal29, Animal30, Animal32
#> Pellet intakes file created and saved to /tmp/RtmpFPpTf2
#> # A tibble: 416 × 4
#>    Date       FarmName RFID            PIntake_kg
#>    <date>     <chr>    <chr>                <dbl>
#>  1 2024-05-13 Animal1  840003234513777      0.714
#>  2 2024-05-13 Animal10 840003250681777      0.578
#>  3 2024-05-13 Animal15 840003250681666      1.26 
#>  4 2024-05-13 Animal2  840003250681999      0.34 
#>  5 2024-05-13 Animal3  840003250681888      0.374
#>  6 2024-05-13 Animal31 840003250681666      1.26 
#>  7 2024-05-13 Animal4  840003250681111      0.068
#>  8 2024-05-13 Animal5  840003250681222      0.85 
#>  9 2024-05-13 Animal6  840003250681444      0.034
#> 10 2024-05-13 Animal7  840003250681666      1.26 
#> # ℹ 406 more rows
…
