Process Daily and Final GreenFeed Data — process_gfdata • greenfeedr
…
  param1 = 2,
  param2 = 3
)
#> Using param1 = 2 , param2 = 3 , min_time = 2
#> [1] "CH4: 387.24 +- 67.37"
#> [1] "CH4 CV = 17.4%"
#> [1] "CO2: 11198.47 +- 1427.23"
#> [1] "CO2 CV = 12.7%"
#> [1] "O2: 7578.41 +- 917.46"
#> [1] "O2 CV = 12.1%"
#> [1] "H2: 0 +- 0"
#> [1] "H2 CV = NaN%"
head(gf_data)
#> $daily_data
#> # A tibble: 61 × 9
#>    RFID     week day                     n minutes CH4GramsPerDay CO2GramsPerDay
#>    <chr>   <dbl> <dttm>              <int>   <dbl>          <dbl>          <dbl>
#>  1 840003…     1 2024-05-13 00:00:00     7   25.9            453.         11995.
#>  2 840003…     1 2024-05-14 00:00:00     5   14.5            245.          7704.
#>  3 840003…     1 2024-05-15 00:00:00     5   17.3            428.         11108.
#>  4 840003…     1 2024-05-19 00:00:00     2    5.65           403.         13532.
#>  5 840003…     1 2024-05-14 00:00:00     3    8.45           263.          8321.
#>  6 840003…     1 2024-05-15 00:00:00     4   10.8            432.         11721.
#>  7 840003…     1 2024-05-16 00:00:00     2    4.73           427.         13417.
#>  8 840003…     1 2024-05-16 00:00:00     4   15.5            504.         12996.
#>  9 840003…     1 2024-05-17 00:00:00     3   11.0            374.         11524.
#> 10 840003…     1 2024-05-18 00:00:00     2    6.66           411.         11474.
#> # ℹ 51 more rows
#> # ℹ 2 more variables: O2GramsPerDay <dbl>, H2GramsPerDay <dbl>
…
