Introduction to greenfeedr • greenfeedr
…
GreenFeed data

To explore the basic data manipulation functions of greenfeedr, we’ll
use dairy cow data from a experiment with 32 cows.

data <- readr::read_csv(system.file("extdata", "StudyName_GFdata.csv", package = "greenfeedr"), show_col_types = FALSE)
dim(data)
#> [1] 256  21
data
#> # A tibble: 256 × 21
#>    FeederID AnimalName   RFID  StartTime EndTime GoodDataDuration CO2GramsPerDay
#>       <dbl> <chr>        <chr> <chr>     <chr>   <time>                    <dbl>
#>  1        1 "\"00000000… 0000… 5/13/24 … 5/13/2… 02'31"                   10531.
#>  2        1 "\"00000000… 0000… 5/13/24 … 5/13/2… 06'09"                   14032.
#>  3        1 "\"00000000… 0000… 5/13/24 … 5/13/2… 10'21"                    9242.
#>  4        1 "\"00000000… 0000… 5/13/24 … 5/13/2… 04'00"                   14735.
#>  5        1 "\"00000000… 0000… 5/13/24 … 5/13/2… 04'55"                   20080.
#>  6        1 "\"00000000… 0000… 5/13/24 … 5/13/2… 03'42"                   13905.
#>  7        1 "\"00000000… 0000… 5/13/24 … 5/13/2… 02'12"                   18625.
#>  8        1 "\"00000000… 0000… 5/13/24 … 5/13/2… 02'23"                   15462.
#>  9        1 "\"00000000… 0000… 5/13/24 … 5/13/2… 05'05"                   15689.
#> 10        1 "\"00000000… 0000… 5/13/24 … 5/13/2… 02'16"                   18011.
#> # ℹ 246 more rows
#> # ℹ 14 more variables: CH4GramsPerDay <dbl>, O2GramsPerDay <dbl>,
#> #   H2GramsPerDay <dbl>, H2SGramsPerDay <dbl>, AirflowLitersPerSec <dbl>,
#> #   AirflowCf <dbl>, WindSpeedMetersPerSec <dbl>, WindDirDeg <dbl>,
#> #   WindCf <dbl>, WasInterrupted <lgl>, InterruptingTags <chr>,
#> #   TempPipeDegreesCelsius <dbl>, IsPreliminary <dbl>, RunTime <chr>
…
